dataset,acc
50words,0.804
Adiac,0.616
Beef,0.5
CBF,0.988
Coffee,0.764
FISH,0.92
FaceAll,0.8109999999999999
FaceFour,0.943
Gun_Point,0.94
Lighting2,0.8360000000000001
Lighting7,0.767
OSULeaf,0.802
OliveOil,0.833
SwedishLeaf,0.8959999999999999
Trace,0.93
Two_Patterns,0.9990000000000001
synthetic_control,0.973
wafer,0.996
yoga,0.857
