dataset,acc
50words,0.7190000000000001
Adiac,0.565
Beef,0.833
CBF,0.997
Car,0.733
ChlorineConcentration,0.7
CinC_ECG_torso,0.846
Coffee,1.0
Cricket_X,0.782
Cricket_Y,0.764
Cricket_Z,0.772
DiatomSizeReduction,0.8759999999999999
ECGFiveDays,0.9990000000000001
FISH,0.977
FaceAll,0.737
FaceFour,0.943
FacesUCR,0.9129999999999999
Gun_Point,0.98
Haptics,0.47700000000000004
InlineSkate,0.385
ItalyPowerDemand,0.9520000000000001
Lighting2,0.6559999999999999
Lighting7,0.74
MALLAT,0.94
MedicalImages,0.604
MoteStrain,0.8909999999999999
NonInvasiveFatalECG_Thorax1,0.9
NonInvasiveFatalECG_Thorax2,0.903
OSULeaf,0.7150000000000001
OliveOil,0.9
Plane,1.0
SonyAIBORobotSurface,0.9329999999999999
SonyAIBORobotSurfaceII,0.885
StarLightCurves,0.976
SwedishLeaf,0.907
Symbols,0.8859999999999999
Trace,0.98
TwoLeadECG,0.996
Two_Patterns,0.941
WordsSynonyms,0.597
synthetic_control,0.983
uWaveGestureLibrary_X,0.784
uWaveGestureLibrary_Y,0.6970000000000001
uWaveGestureLibrary_Z,0.727
wafer,0.998
yoga,0.8049999999999999
