dataset,acc
50words,0.6839999999999999
Adiac,0.767
Beef,0.767
CBF,0.8109999999999999
ChlorineConcentration,0.865
CinC_ECG_torso,0.667
Cricket_X,0.5509999999999999
Cricket_Y,0.585
Cricket_Z,0.6
DiatomSizeReduction,0.9440000000000001
ECGFiveDays,0.912
FISH,0.8740000000000001
FaceAll,0.753
FaceFour,0.898
FacesUCR,0.7959999999999999
Gun_Point,0.9
Haptics,0.406
InlineSkate,0.333
ItalyPowerDemand,0.945
Lighting2,1.0
Lighting7,0.7120000000000001
MALLAT,0.8809999999999999
MedicalImages,0.7010000000000001
MoteStrain,0.867
NonInvasiveFatalECG_Thorax1,0.91
NonInvasiveFatalECG_Thorax2,0.9309999999999999
OSULeaf,0.537
OliveOil,0.767
SonyAIBORobotSurface,0.79
SonyAIBORobotSurfaceII,0.7809999999999999
StarLightCurves,0.973
SwedishLeaf,0.915
Symbols,0.821
Two_Patterns,0.995
WordsSynonyms,0.5710000000000001
uWaveGestureLibrary_X,0.7759999999999999
uWaveGestureLibrary_Y,0.665
uWaveGestureLibrary_Z,0.7030000000000001
wafer,1.0
yoga,0.7979999999999999
