dataset,acc
50words,0.723
Adiac,0.484
ArrowHead,0.804
Beef,0.643
BeetleFly,0.745
BirdChicken,0.665
CBF,0.947
Car,0.758
ChlorineConcentration,0.573
CinC_ECG_torso,0.911
Coffee,0.979
Computers,0.5739999999999998
Cricket_X,0.6940000000000001
Cricket_Y,0.675
Cricket_Z,0.6920000000000001
DiatomSizeReduction,0.9129999999999999
DistalPhalanxOutlineAgeGroup,0.737
DistalPhalanxOutlineCorrect,0.741
DistalPhalanxTW,0.688
ECG200,0.9229999999999999
ECG5000,0.94
ECGFiveDays,0.982
Earthquakes,0.748
ElectricDevices,0.6739999999999999
FISH,0.866
FaceAll,0.7929999999999999
FaceFour,0.8150000000000001
FacesUCR,0.8740000000000001
FordA,0.9229999999999999
FordB,0.89
Gun_Point,0.936
Ham,0.7270000000000001
HandOutlines,0.899
Haptics,0.42700000000000005
Herring,0.5860000000000001
InlineSkate,0.29200000000000004
InsectWingbeatSound,0.6329999999999999
ItalyPowerDemand,0.965
LargeKitchenAppliances,0.619
Lighting2,0.6920000000000001
Lighting7,0.625
MALLAT,0.8759999999999999
Meat,0.742
MedicalImages,0.7340000000000001
MiddlePhalanxOutlineAgeGroup,0.579
MiddlePhalanxOutlineCorrect,0.7609999999999999
MiddlePhalanxTW,0.5920000000000001
MoteStrain,0.84
NonInvasiveFatalECG_Thorax1,0.916
NonInvasiveFatalECG_Thorax2,0.932
OSULeaf,0.5760000000000001
OliveOil,0.4
PhalangesOutlinesCorrect,0.767
Phoneme,0.17199999999999993
Plane,0.976
ProximalPhalanxOutlineAgeGroup,0.8440000000000001
ProximalPhalanxOutlineCorrect,0.7909999999999999
ProximalPhalanxTW,0.812
RefrigerationDevices,0.488
ScreenType,0.383
ShapeletSim,0.53
ShapesAll,0.758
SmallKitchenAppliances,0.596
SonyAIBORobotSurface,0.743
SonyAIBORobotSurfaceII,0.8390000000000001
StarLightCurves,0.957
Strawberry,0.946
SwedishLeaf,0.93
Symbols,0.821
ToeSegmentation1,0.659
ToeSegmentation2,0.795
Trace,0.96
TwoLeadECG,0.863
Two_Patterns,1.0
UWaveGestureLibraryAll,0.954
Wine,0.5
WordsSynonyms,0.613
Worms,0.571
WormsTwoClass,0.639
synthetic_control,0.996
uWaveGestureLibrary_X,0.7859999999999999
uWaveGestureLibrary_Y,0.696
uWaveGestureLibrary_Z,0.711
wafer,0.996
yoga,0.8200000000000001
