dataset,acc
50words,0.631
Adiac,0.611
ArrowHead,0.8
Beef,0.667
BeetleFly,0.75
BirdChicken,0.55
CBF,0.852
Car,0.733
ChlorineConcentration,0.65
CinC_ECG_torso,0.897
Coffee,1.0
Computers,0.5760000000000001
Cricket_X,0.577
Cricket_Y,0.567
Cricket_Z,0.587
DiatomSizeReduction,0.935
DistalPhalanxOutlineAgeGroup,0.782
DistalPhalanxOutlineCorrect,0.752
DistalPhalanxTW,0.727
ECG200,0.88
ECG5000,0.925
ECGFiveDays,0.7969999999999999
Earthquakes,0.6739999999999999
ElectricDevices,0.55
FISH,0.783
FaceAll,0.714
FaceFour,0.7839999999999999
FacesUCR,0.769
FordA,0.659
FordB,0.558
Gun_Point,0.913
Ham,0.6
HandOutlines,0.8009999999999999
Haptics,0.37
Herring,0.516
InlineSkate,0.3420000000000001
InsectWingbeatSound,0.562
ItalyPowerDemand,0.955
LargeKitchenAppliances,0.493
Lighting2,0.754
Lighting7,0.575
MALLAT,0.914
Meat,0.933
MedicalImages,0.6839999999999999
MiddlePhalanxOutlineAgeGroup,0.74
MiddlePhalanxOutlineCorrect,0.753
MiddlePhalanxTW,0.5609999999999999
MoteStrain,0.879
NonInvasiveFatalECG_Thorax1,0.829
NonInvasiveFatalECG_Thorax2,0.88
OSULeaf,0.521
OliveOil,0.867
PhalangesOutlinesCorrect,0.761
Phoneme,0.1090000000000001
Plane,0.962
ProximalPhalanxOutlineAgeGroup,0.785
ProximalPhalanxOutlineCorrect,0.808
ProximalPhalanxTW,0.708
RefrigerationDevices,0.395
ScreenType,0.36
ShapeletSim,0.5389999999999999
ShapesAll,0.752
SmallKitchenAppliances,0.34099999999999997
SonyAIBORobotSurface,0.6950000000000001
SonyAIBORobotSurfaceII,0.859
StarLightCurves,0.849
Strawberry,0.938
SwedishLeaf,0.789
Symbols,0.9
ToeSegmentation1,0.6799999999999999
ToeSegmentation2,0.808
Trace,0.76
TwoLeadECG,0.747
Two_Patterns,0.91
UWaveGestureLibraryAll,0.948
Wine,0.611
WordsSynonyms,0.618
Worms,0.365
WormsTwoClass,0.5860000000000001
synthetic_control,0.88
uWaveGestureLibrary_X,0.739
uWaveGestureLibrary_Y,0.6619999999999999
uWaveGestureLibrary_Z,0.65
wafer,0.995
yoga,0.83
