dataset,acc
50words,0.16043956
Adiac,0.501278772
ArrowHead,0.571428571
Beef,0.6
BeetleFly,0.85
BirdChicken,0.6
CBF,0.8544444440000001
Car,0.566666667
ChlorineConcentration,0.598958333
CinC_ECG_torso,0.83115942
Coffee,0.9642857140000001
Computers,0.664
Cricket_X,0.312820513
Cricket_Y,0.287179487
Cricket_Z,0.328205128
DiatomSizeReduction,0.9411764709999999
DistalPhalanxOutlineAgeGroup,0.73381295
DistalPhalanxOutlineCorrect,0.72826087
DistalPhalanxTW,0.661870504
ECG200,0.75
ECG5000,0.852888889
ECGFiveDays,0.780487805
Earthquakes,0.568345324
ElectricDevices,0.46258591600000004
FISH,0.6571428570000001
FaceAll,0.673372781
FaceFour,0.897727273
FacesUCR,0.611707317
FordA,0.515909091
FordB,0.507407407
Gun_Point,0.8533333329999999
Ham,0.704761905
HandOutlines,0.845945946
Haptics,0.363636364
Herring,0.53125
InlineSkate,0.17636363600000002
InsectWingbeatSound,0.614141414
ItalyPowerDemand,0.931972789
LargeKitchenAppliances,0.549333333
Lighting2,0.7377049179999999
Lighting7,0.684931507
MALLAT,0.9552238809999999
Meat,0.916666667
MedicalImages,0.401315789
MiddlePhalanxOutlineAgeGroup,0.6038961039999999
MiddlePhalanxOutlineCorrect,0.704467354
MiddlePhalanxTW,0.506493506
MoteStrain,0.856230032
NonInvasiveFatalECG_Thorax1,0.811704835
NonInvasiveFatalECG_Thorax2,0.8391857509999999
OSULeaf,0.309917355
OliveOil,0.9
PhalangesOutlinesCorrect,0.7307692309999999
Phoneme,0.112869198
Plane,0.9809523809999999
ProximalPhalanxOutlineAgeGroup,0.853658537
ProximalPhalanxOutlineCorrect,0.721649485
ProximalPhalanxTW,0.7463414629999999
RefrigerationDevices,0.504
ScreenType,0.44799999999999995
ShapeletSim,0.522222222
ShapesAll,0.583333333
SmallKitchenAppliances,0.653333333
SonyAIBORobotSurface,0.740432612
SonyAIBORobotSurfaceII,0.790136411
StarLightCurves,0.791403594
Strawberry,0.818918919
SwedishLeaf,0.8336
Symbols,0.895477387
ToeSegmentation1,0.578947368
ToeSegmentation2,0.561538462
Trace,0.82
TwoLeadECG,0.73309921
Two_Patterns,0.46275
UWaveGestureLibraryAll,0.890563931
Wine,0.611111111
WordsSynonyms,0.25078369899999997
Worms,0.44155844200000005
WormsTwoClass,0.571428571
synthetic_control,0.926666667
uWaveGestureLibrary_X,0.6694584029999999
uWaveGestureLibrary_Y,0.584589615
uWaveGestureLibrary_Z,0.5734226689999999
wafer,0.957657365
yoga,0.606
