dataset,acc
50words,0.630769231
Adiac,0.611253197
ArrowHead,0.8
Beef,0.666666667
BeetleFly,0.75
BirdChicken,0.55
CBF,0.8522222220000001
Car,0.7333333329999999
ChlorineConcentration,0.65
CinC_ECG_torso,0.8971014490000001
Coffee,1.0
Computers,0.5760000000000001
Cricket_X,0.576923077
Cricket_Y,0.566666667
Cricket_Z,0.587179487
DiatomSizeReduction,0.934640523
DistalPhalanxOutlineAgeGroup,0.625899281
DistalPhalanxOutlineCorrect,0.7173913040000001
DistalPhalanxTW,0.633093525
ECG200,0.88
ECG5000,0.9248888890000001
ECGFiveDays,0.7967479670000001
Earthquakes,0.7122302159999999
ElectricDevices,0.551679419
FISH,0.782857143
FaceAll,0.713609467
FaceFour,0.7840909090000001
FacesUCR,0.769268293
FordA,0.665151515
FordB,0.60617284
Gun_Point,0.913333333
Ham,0.6
HandOutlines,0.8621621620000001
Haptics,0.37012987
Herring,0.515625
InlineSkate,0.341818182
InsectWingbeatSound,0.561616162
ItalyPowerDemand,0.955296404
LargeKitchenAppliances,0.493333333
Lighting2,0.7540983609999999
Lighting7,0.575342466
MALLAT,0.914285714
Meat,0.933333333
MedicalImages,0.684210526
MiddlePhalanxOutlineAgeGroup,0.519480519
MiddlePhalanxOutlineCorrect,0.7663230240000001
MiddlePhalanxTW,0.5129870129999999
MoteStrain,0.878594249
NonInvasiveFatalECG_Thorax1,0.8290076340000001
NonInvasiveFatalECG_Thorax2,0.8798982190000001
OSULeaf,0.520661157
OliveOil,0.8666666670000001
PhalangesOutlinesCorrect,0.7610722609999999
Phoneme,0.109177215
Plane,0.9619047620000001
ProximalPhalanxOutlineAgeGroup,0.785365854
ProximalPhalanxOutlineCorrect,0.8075601370000001
ProximalPhalanxTW,0.707317073
RefrigerationDevices,0.394666667
ScreenType,0.36
ShapeletSim,0.538888889
ShapesAll,0.7516666670000001
SmallKitchenAppliances,0.344
SonyAIBORobotSurface,0.695507488
SonyAIBORobotSurfaceII,0.8593913959999999
StarLightCurves,0.8488343859999999
Strawberry,0.9459459459999999
SwedishLeaf,0.7888
Symbols,0.899497487
ToeSegmentation1,0.679824561
ToeSegmentation2,0.807692308
Trace,0.76
TwoLeadECG,0.74714662
Two_Patterns,0.90675
UWaveGestureLibraryAll,0.9480737020000001
Wine,0.611111111
WordsSynonyms,0.617554859
Worms,0.454545455
WormsTwoClass,0.61038961
synthetic_control,0.88
uWaveGestureLibrary_X,0.739251815
uWaveGestureLibrary_Y,0.661641541
uWaveGestureLibrary_Z,0.649637074
wafer,0.995457495
yoga,0.830333333
