dataset,acc
50words,0.797802198
Adiac,0.250639386
ArrowHead,0.7885714290000001
Beef,0.7666666670000001
BeetleFly,0.8
BirdChicken,0.8
CBF,0.99
Car,0.833333333
ChlorineConcentration,0.7197916670000001
CinC_ECG_torso,0.946376812
Coffee,1.0
Computers,0.644
Cricket_X,0.7307692309999999
Cricket_Y,0.7871794870000001
Cricket_Z,0.7410256409999999
DiatomSizeReduction,0.9411764709999999
DistalPhalanxOutlineAgeGroup,0.73381295
DistalPhalanxOutlineCorrect,0.7427536229999999
DistalPhalanxTW,0.633093525
ECG200,0.89
ECG5000,0.929555556
ECGFiveDays,0.794425087
Earthquakes,0.726618705
ElectricDevices,0.625988847
FISH,0.8742857140000001
FaceAll,0.8005917159999999
FaceFour,0.9659090909999999
FacesUCR,0.955121951
FordA,0.698484848
FordB,0.648148148
Gun_Point,0.973333333
Ham,0.60952381
HandOutlines,0.848648649
Haptics,0.38961039
Herring,0.5625
InlineSkate,0.427272727
InsectWingbeatSound,0.5555555560000001
ItalyPowerDemand,0.9572400390000001
LargeKitchenAppliances,0.584
Lighting2,0.770491803
Lighting7,0.575342466
MALLAT,0.9108742
Meat,0.533333333
MedicalImages,0.706578947
MiddlePhalanxOutlineAgeGroup,0.61038961
MiddlePhalanxOutlineCorrect,0.749140893
MiddlePhalanxTW,0.577922078
MoteStrain,0.8817891370000001
NonInvasiveFatalECG_Thorax1,0.81221374
NonInvasiveFatalECG_Thorax2,0.88346056
OSULeaf,0.789256198
OliveOil,0.4
PhalangesOutlinesCorrect,0.742424242
Phoneme,0.25632911399999997
Plane,1.0
ProximalPhalanxOutlineAgeGroup,0.853658537
ProximalPhalanxOutlineCorrect,0.7560137459999999
ProximalPhalanxTW,0.804878049
RefrigerationDevices,0.49066666700000006
ScreenType,0.437333333
ShapeletSim,0.8222222220000001
ShapesAll,0.845
SmallKitchenAppliances,0.47200000000000003
SonyAIBORobotSurface,0.735440932
SonyAIBORobotSurfaceII,0.81112277
StarLightCurves,0.8794317629999999
Strawberry,0.837837838
SwedishLeaf,0.888
Symbols,0.954773869
ToeSegmentation1,0.75
ToeSegmentation2,0.907692308
Trace,0.97
TwoLeadECG,0.8858647940000001
Two_Patterns,0.99925
UWaveGestureLibraryAll,0.9589614740000001
Wine,0.481481481
WordsSynonyms,0.757053292
Worms,0.597402597
WormsTwoClass,0.649350649
synthetic_control,0.953333333
uWaveGestureLibrary_X,0.7713567840000001
uWaveGestureLibrary_Y,0.691792295
uWaveGestureLibrary_Z,0.688721385
wafer,0.9897793640000001
yoga,0.8603333329999999
