dataset,acc
50words,0.705494505
Adiac,0.7826086959999999
ArrowHead,0.737142857
Beef,0.9
BeetleFly,0.9
BirdChicken,0.8
CBF,0.9744444440000001
Car,0.916666667
ChlorineConcentration,0.6997395829999999
CinC_ECG_torso,0.9543478259999999
Coffee,0.9642857140000001
Computers,0.736
Cricket_X,0.7717948720000001
Cricket_Y,0.7794871790000001
Cricket_Z,0.7871794870000001
DiatomSizeReduction,0.924836601
DistalPhalanxOutlineAgeGroup,0.769784173
DistalPhalanxOutlineCorrect,0.7753623190000001
DistalPhalanxTW,0.661870504
ECG200,0.83
ECG5000,0.943777778
ECGFiveDays,0.983739837
Earthquakes,0.741007194
ElectricDevices,0.746984827
FISH,0.9885714290000001
FaceAll,0.778698225
FaceFour,0.852272727
FacesUCR,0.905853659
FordA,0.971212121
FordB,0.807407407
Gun_Point,1.0
Ham,0.685714286
HandOutlines,0.932432432
Haptics,0.522727273
Herring,0.671875
InlineSkate,0.37272727299999997
InsectWingbeatSound,0.626767677
ItalyPowerDemand,0.947521866
LargeKitchenAppliances,0.858666667
Lighting2,0.7377049179999999
Lighting7,0.7260273970000001
MALLAT,0.9641791040000001
Meat,0.85
MedicalImages,0.669736842
MiddlePhalanxOutlineAgeGroup,0.642857143
MiddlePhalanxOutlineCorrect,0.793814433
MiddlePhalanxTW,0.519480519
MoteStrain,0.896964856
NonInvasiveFatalECG_Thorax1,0.949618321
NonInvasiveFatalECG_Thorax2,0.9511450379999999
OSULeaf,0.9669421490000001
OliveOil,0.9
PhalangesOutlinesCorrect,0.7634032629999999
Phoneme,0.320675105
Plane,1.0
ProximalPhalanxOutlineAgeGroup,0.8439024390000001
ProximalPhalanxOutlineCorrect,0.883161512
ProximalPhalanxTW,0.804878049
RefrigerationDevices,0.581333333
ScreenType,0.52
ShapeletSim,0.955555556
ShapesAll,0.841666667
SmallKitchenAppliances,0.792
SonyAIBORobotSurface,0.84359401
SonyAIBORobotSurfaceII,0.93389297
StarLightCurves,0.978508985
Strawberry,0.962162162
SwedishLeaf,0.9279999999999999
Symbols,0.88241206
ToeSegmentation1,0.9649122809999999
ToeSegmentation2,0.907692308
Trace,1.0
TwoLeadECG,0.9973661109999999
Two_Patterns,0.955
UWaveGestureLibraryAll,0.942211055
Wine,0.796296296
WordsSynonyms,0.570532915
Worms,0.74025974
WormsTwoClass,0.8311688309999999
synthetic_control,0.9833333329999999
uWaveGestureLibrary_X,0.802903406
uWaveGestureLibrary_Y,0.7303182579999999
uWaveGestureLibrary_Z,0.748464545
wafer,1.0
yoga,0.817666667
