dataset,acc
50words,0.69010989
Adiac,0.7621483379999999
ArrowHead,0.7428571429999999
Beef,0.933333333
BeetleFly,0.85
BirdChicken,0.8
CBF,0.8755555559999999
Car,0.8833333329999999
ChlorineConcentration,0.92421875
CinC_ECG_torso,0.651449275
Coffee,1.0
Computers,0.54
Cricket_X,0.484615385
Cricket_Y,0.46153846200000004
Cricket_Z,0.464102564
DiatomSizeReduction,0.947712418
DistalPhalanxOutlineAgeGroup,0.6690647479999999
DistalPhalanxOutlineCorrect,0.764492754
DistalPhalanxTW,0.625899281
ECG200,0.85
ECG5000,0.926222222
ECGFiveDays,0.9721254359999999
Earthquakes,0.741007194
ElectricDevices,0.580988199
FISH,0.8628571429999999
FaceAll,0.733136095
FaceFour,0.852272727
FacesUCR,0.780487805
FordA,0.777272727
FordB,0.737037037
Gun_Point,0.94
Ham,0.6571428570000001
HandOutlines,0.867567568
Haptics,0.428571429
Herring,0.609375
InlineSkate,0.329090909
InsectWingbeatSound,0.6005050510000001
ItalyPowerDemand,0.951409135
LargeKitchenAppliances,0.46133333299999996
Lighting2,0.7540983609999999
Lighting7,0.712328767
MALLAT,0.863539446
Meat,0.966666667
MedicalImages,0.707894737
MiddlePhalanxOutlineAgeGroup,0.487012987
MiddlePhalanxOutlineCorrect,0.773195876
MiddlePhalanxTW,0.5324675320000001
MoteStrain,0.8706070290000001
NonInvasiveFatalECG_Thorax1,0.940458015
NonInvasiveFatalECG_Thorax2,0.948091603
OSULeaf,0.566115702
OliveOil,0.8666666670000001
PhalangesOutlinesCorrect,0.724941725
Phoneme,0.097046414
Plane,0.99047619
ProximalPhalanxOutlineAgeGroup,0.8097560979999999
ProximalPhalanxOutlineCorrect,0.9003436429999999
ProximalPhalanxTW,0.76097561
RefrigerationDevices,0.373333333
ScreenType,0.384
ShapeletSim,0.483333333
ShapesAll,0.7483333329999999
SmallKitchenAppliances,0.46133333299999996
SonyAIBORobotSurface,0.7071547420000001
SonyAIBORobotSurfaceII,0.818467996
StarLightCurves,0.9339485190000001
Strawberry,0.972972973
SwedishLeaf,0.8640000000000001
Symbols,0.894472362
ToeSegmentation1,0.574561404
ToeSegmentation2,0.653846154
Trace,0.82
TwoLeadECG,0.905179982
Two_Patterns,0.87425
UWaveGestureLibraryAll,0.935790061
Wine,0.759259259
WordsSynonyms,0.565830721
Worms,0.428571429
WormsTwoClass,0.571428571
synthetic_control,0.943333333
uWaveGestureLibrary_X,0.718592965
uWaveGestureLibrary_Y,0.626186488
uWaveGestureLibrary_Z,0.654941374
wafer,0.994159637
yoga,0.7859999999999999
